{
    "pleaseFillout": {
        "message": "Molimo ispunite ovo polje",
        "description": "Fill this out warning"
    },
    "encryptTab": {
        "message": "Šifriranje",
        "description": "Encrypt tab button"
    },
    "encryptButton": {
        "message": "Šifriranje",
        "description": "Encrypt button"
    },
    "decryptTab": {
        "message": "Dešifrirati",
        "description": "Decrypt tab button"
    },
    "extensionDescription": {
        "message": "Šifrirajte tekst sigurno i jednostavno pomoću AES",
        "description": "Description of the extension."
    },
    "goToMozilla": {
        "message": "Ići Mozilla",
        "description": "Go to Mozilla label"
    },
    "plaintextLabel": {
        "message": "Unesite svoj otvoreni tekst",
        "description": "Label of the textarea"
    },
    "ciphertextLabel": {
        "message": "Unesite svoj šifrirani tekst",
        "description": "Label of the textarea"
    },
    "textPlaceholder": {
        "message": "Vaš tekst",
        "description": "Placeholder of the plaintext"
    },
    "encryptpasswortLabel": {
        "message": "Unesite lozinku za šifriranje",
        "description": "Label of the password"
    },
    "decryptpasswortLabel": {
        "message": "Unesite lozinku za dešifriranje",
        "description": "Label of the password"
    },
    "passwortPlaceholder": {
        "message": "Vaša lozinka",
        "description": "Placeholder of the password"
    },
    "weakPassword": {
        "message": "Vaša je lozinka vrlo slaba",
        "description": "Weak password warning"
    },
    "decryptButton": {
        "message": "Dešifrirati",
        "description": "Decrypt button"
    },
    "thereWasError": {
        "message": "Došlo je do pogreške u vezi s godinama",
        "description": "Placeholder for the result textarea"
    },
    "nextButton": {
        "message": "Sljedeći",
        "description": "Next button"
    },
    "doneButton": {
        "message": "Gotovo",
        "description": "Done button"
    },
    "rateIt": {
        "message": "Ocijenite ga uMozilla",
        "description": "Star rating bottom"
    },
    "darkModeOn": {
        "message": "Tamni način rada",
        "description": "Activate dark mode footer button"
    },
    "darkerDesign": {
        "message": "Tamniji dizajn",
        "description": "title of dark mode footer"
    },
    "lightModeOn": {
        "message": "Svjetlosni način rada",
        "description": "Activate light mode footer button"
    },
    "lighterDesign": {
        "message": "Lakši dizajn",
        "description": "title of light mode footer"
    },
    "voila": {
        "message": "Voila",
        "description": "label of output textarea"
    }
}
