{
    "darkModeOn": {
        "message": "Tryb ciemny",
        "description": "Activate dark mode footer button"
    },
    "extensionDescription": {
        "message": "Bezpieczne i łatwe szyfrowanie tekstu za pomocą algorytmu AES",
        "description": "Description of the extension."
    },
    "goToMozilla": {
        "message": "Przejdź do witryny Mozilla",
        "description": "Go to Mozilla label"
    },
    "plaintextLabel": {
        "message": "Wprowadź tekst jawny",
        "description": "Label of the textarea"
    },
    "ciphertextLabel": {
        "message": "Wprowadź szyfrogram",
        "description": "Label of the textarea"
    },
    "textPlaceholder": {
        "message": "Twój tekst",
        "description": "Placeholder of the plaintext"
    },
    "encryptpasswortLabel": {
        "message": "Wprowadź hasło szyfrowania",
        "description": "Label of the password"
    },
    "decryptpasswortLabel": {
        "message": "Wprowadź hasło odszyfrowania",
        "description": "Label of the password"
    },
    "passwortPlaceholder": {
        "message": "Twoje hasło",
        "description": "Placeholder of the password"
    },
    "darkerDesign": {
        "message": "Ciemniejszy wzór",
        "description": "title of dark mode footer"
    },
    "weakPassword": {
        "message": "Twoje hasło jest bardzo słabe",
        "description": "Weak password warning"
    },
    "pleaseFillout": {
        "message": "Proszę wypełnić ten formularz",
        "description": "Fill this out warning"
    },
    "encryptTab": {
        "message": "Zaszyfruj",
        "description": "Encrypt tab button"
    },
    "encryptButton": {
        "message": "Zaszyfruj",
        "description": "Encrypt button"
    },
    "decryptTab": {
        "message": "Odszyfruj",
        "description": "Decrypt tab button"
    },
    "decryptButton": {
        "message": "Odszyfruj",
        "description": "Decrypt button"
    },
    "thereWasError": {
        "message": "Wystąpił błąd 😕",
        "description": "Placeholder for the result textarea"
    },
    "nextButton": {
        "message": "Następny",
        "description": "Next button"
    },
    "rateIt": {
        "message": "Oceń w serwisie Mozilla",
        "description": "Star rating bottom"
    },
    "lighterDesign": {
        "message": "Jaśniejszy wzór",
        "description": "title of light mode footer"
    },
    "lightModeOn": {
        "message": "Jasny tryb",
        "description": "Activate light mode footer button"
    },
    "doneButton": {
        "message": "Gotowe",
        "description": "Done button"
    },
    "voila": {
        "message": "Voilà",
        "description": "label of output textarea"
    }
}
