{
    "goToMozilla": {
        "message": "Siirry Mozillaan",
        "description": "Go to Mozilla label"
    },
    "textPlaceholder": {
        "message": "Sinun tekstisi",
        "description": "Placeholder of the plaintext"
    },
    "pleaseFillout": {
        "message": "Ole hyvä ja täytä tämä",
        "description": "Fill this out warning"
    },
    "weakPassword": {
        "message": "Salasanasi on hyvin heikko",
        "description": "Weak password warning"
    },
    "rateIt": {
        "message": "Arvioi se Mozilla",
        "description": "Star rating bottom"
    },
    "nextButton": {
        "message": "Seuraava",
        "description": "Next button"
    },
    "decryptTab": {
        "message": "Salaus puretaan",
        "description": "Decrypt tab button"
    },
    "decryptButton": {
        "message": "Salaus puretaan",
        "description": "Decrypt button"
    },
    "encryptButton": {
        "message": "Salataan",
        "description": "Encrypt button"
    },
    "lighterDesign": {
        "message": "Kevyempi muotoilu",
        "description": "title of light mode footer"
    },
    "lightModeOn": {
        "message": "Valon tila",
        "description": "Activate light mode footer button"
    },
    "darkerDesign": {
        "message": "Tummempi muotoilu",
        "description": "title of dark mode footer"
    },
    "darkModeOn": {
        "message": "Tumma tila",
        "description": "Activate dark mode footer button"
    },
    "thereWasError": {
        "message": "Tapahtui virhe 😕",
        "description": "Placeholder for the result textarea"
    },
    "encryptTab": {
        "message": "Salataan",
        "description": "Encrypt tab button"
    },
    "passwortPlaceholder": {
        "message": "Sinun salasanasi",
        "description": "Placeholder of the password"
    },
    "decryptpasswortLabel": {
        "message": "Syötä salauksen purkusalasana",
        "description": "Label of the password"
    },
    "encryptpasswortLabel": {
        "message": "Syötä salaussalasana",
        "description": "Label of the password"
    },
    "ciphertextLabel": {
        "message": "Syötä salaustekstisi",
        "description": "Label of the textarea"
    },
    "plaintextLabel": {
        "message": "Kirjoita selkotekstisi",
        "description": "Label of the textarea"
    },
    "extensionDescription": {
        "message": "Salaa teksti turvallisesti ja helposti AES:n avulla",
        "description": "Description of the extension."
    },
    "doneButton": {
        "message": "Valmis",
        "description": "Done button"
    },
    "voila": {
        "message": "Voilà",
        "description": "label of output textarea"
    }
}
